fir.vcd
$date
	Wed Oct 18 21:49:43 2023
$end

$version
	Synopsys VCS version T-2022.06_Full64
$end

$timescale
	1ps
$end

$comment Csum: 1 40537fc35b4739c1 $end


$scope module fir_tb $end
$var integer 32 ! Din $end
$var integer 32 " golden $end
$var integer 32 # m $end
$var wire 1 $ awready $end
$var wire 1 % wready $end
$var reg 1 & awvalid $end
$var reg 12 ' awaddr [11:0] $end
$var reg 1 ( wvalid $end
$var reg 32 ) wdata [31:0] $end
$var wire 1 * arready $end
$var reg 1 + rready $end
$var reg 1 , arvalid $end
$var reg 12 - araddr [11:0] $end
$var wire 1 . rvalid $end
$var wire 32 / rdata [31:0] $end
$var reg 1 0 ss_tvalid $end
$var reg 32 1 ss_tdata [31:0] $end
$var reg 1 2 ss_tlast $end
$var wire 1 3 ss_tready $end
$var reg 1 4 sm_tready $end
$var wire 1 5 sm_tvalid $end
$var wire 32 6 sm_tdata [31:0] $end
$var wire 1 7 sm_tlast $end
$var reg 1 8 axis_clk $end
$var reg 1 9 axis_rst_n $end
$var wire 4 : tap_WE [3:0] $end
$var wire 1 ; tap_EN $end
$var wire 32 < tap_Di [31:0] $end
$var wire 12 = tap_A [11:0] $end
$var wire 32 > tap_Do [31:0] $end
$var wire 4 ? data_WE [3:0] $end
$var wire 1 @ data_EN $end
$var wire 32 A data_Di [31:0] $end
$var wire 12 B data_A [11:0] $end
$var wire 32 C data_Do [31:0] $end
$var reg 32 D data_length [31:0] $end
$var integer 32 E input_data $end
$var integer 32 F golden_data $end
$var integer 32 G i $end
$var integer 32 H k $end
$var reg 1 I error $end
$var reg 1 J status_error $end
$var reg 1 K error_coef $end
$var integer 32 L timeout $end

$scope task config_write $end
$var reg 12 M addr [11:0] $end
$var reg 32 N data [31:0] $end
$upscope $end


$scope task config_read_check $end
$var reg 12 O addr [11:0] $end
$var reg 32 P exp_data [31:0] $end
$var reg 32 Q mask [31:0] $end
$upscope $end


$scope task ss $end
$var reg 32 R in1 [31:0] $end
$upscope $end


$scope task sm $end
$var reg 32 S in2 [31:0] $end
$var reg 32 T pcnt [31:0] $end
$upscope $end


$scope module fir_DUT $end
$var wire 1 U axis_clk $end
$var wire 1 V axis_rst_n $end
$var wire 1 $ awready $end
$var wire 1 W awvalid $end
$var wire 12 X awaddr [11:0] $end
$var wire 1 % wready $end
$var wire 1 Y wvalid $end
$var wire 32 Z wdata [31:0] $end
$var wire 1 * arready $end
$var wire 1 [ arvalid $end
$var wire 12 \ araddr [11:0] $end
$var wire 1 ] rready $end
$var wire 1 . rvalid $end
$var reg 32 ^ rdata [31:0] $end
$var wire 1 3 ss_tready $end
$var wire 1 _ ss_tvalid $end
$var wire 1 ` ss_tlast $end
$var wire 32 a ss_tdata [31:0] $end
$var wire 1 b sm_tready $end
$var wire 1 5 sm_tvalid $end
$var wire 1 7 sm_tlast $end
$var wire 32 c sm_tdata [31:0] $end
$var wire 4 : tap_WE [3:0] $end
$var wire 1 ; tap_EN $end
$var wire 32 < tap_Di [31:0] $end
$var wire 12 = tap_A [11:0] $end
$var wire 32 > tap_Do [31:0] $end
$var wire 4 ? data_WE [3:0] $end
$var wire 1 @ data_EN $end
$var wire 32 A data_Di [31:0] $end
$var wire 12 B data_A [11:0] $end
$var wire 32 C data_Do [31:0] $end
$var reg 2 d cs_w [1:0] $end
$var reg 2 e ns_w [1:0] $end
$var reg 2 f cs_r [1:0] $end
$var reg 2 g ns_r [1:0] $end
$var reg 2 h fir_cs [1:0] $end
$var reg 2 i fir_ns [1:0] $end
$var reg 12 j addr_reg [11:0] $end
$var reg 1 k ap_start $end
$var reg 1 l ap_done $end
$var reg 1 m ap_idle $end
$var reg 32 n data_len [31:0] $end
$var reg 1 o tlast_flag $end
$var reg 12 p tap_A_mux [11:0] $end
$var reg 32 q TAP0_buf [31:0] $end
$var reg 32 r xt_buf [31:0] $end
$var reg 12 s fir_tap_addr [11:0] $end
$var reg 8 t x_addr_init [7:0] $end
$var reg 12 u x_addr [11:0] $end
$var reg 4 v data_count [3:0] $end
$var reg 4 w proc_count [3:0] $end
$var reg 64 x fir_multi [63:0] $end
$var reg 33 y fir_sum [32:0] $end
$var wire 32 z fir_o [31:0] $end
$upscope $end


$scope module tap_RAM $end
$var wire 1 { CLK $end
$var wire 4 : WE [3:0] $end
$var wire 1 ; EN $end
$var wire 32 < Di [31:0] $end
$var wire 32 > Do [31:0] $end
$var wire 12 = A [11:0] $end
$var reg 12 | r_A [11:0] $end
$var reg 32 } Temp_D [31:0] $end
$upscope $end


$scope module data_RAM $end
$var wire 1 ~ CLK $end
$var wire 4 ? WE [3:0] $end
$var wire 1 @ EN $end
$var wire 32 A Di [31:0] $end
$var wire 32 C Do [31:0] $end
$var wire 12 B A [11:0] $end
$var reg 12 "! r_A [11:0] $end
$var reg 32 "" Temp_D [31:0] $end
$upscope $end

$upscope $end

$enddefinitions $end

#0
$dumpvars
xl
xm
xk
x*
0,
x$
0&
08
09
0@
0I
0K
0[
0W
0V
0]
1b
0`
1_
0Y
0+
x.
x7
14
x5
02
03
10
0J
0;
xo
x%
0(
b10000000000000000000000000000011 !
bxxxxxxxxxxxxxxxxxxxxxxxxxxxxxxxx q
bxxxxxxxxxxxxxxxxxxxxxxxxxxxxxxxx }
bxxxxxxxxxxxx j
bxxxxxxxxxxxx -
bxxxxxxxxxxxx '
bxxxxxxxxxxxx O
bxxxxxxxxxxxxxxxxxxxxxxxxxxxxxxxx P
bxxxxxxxxxxxxxxxxxxxxxxxxxxxxxxxx Q
b000000010000 M
b00000000000000000000001001011000 N
bxx f
bxx d
bxxxxxxxxxxxx B
bxxxxxxxxxxxxxxxxxxxxxxxxxxxxxxxx A
b00000000000000000000000000000000 C
bxxxxxxxxxxxxxxxxxxxxxxxxxxxxxxxx ""
bxxxxxxxxxxxx "!
bxxxx ?
bxxxx v
bxxxxxxxxxxxxxxxxxxxxxxxxxxxxxxxx n
b00000000000000000000001001011000 D
bxxxxxxxxxxxx \
bxxxxxxxxxxxx X
b00000000000000000000000000000000 ^
bxxxxxxxxxxxxxxxxxxxxxxxxxxxxxxxx c
b00000000000000000000000000000001 a
bxxxxxxxxxxxxxxxxxxxxxxxxxxxxxxxx Z
bxx h
bxxxxxxxxxxxxxxxxxxxxxxxxxxxxxxxxxxxxxxxxxxxxxxxxxxxxxxxxxxxxxxxx x
bxx i
bxxxxxxxxxxxxxxxxxxxxxxxxxxxxxxxx z
bxxxxxxxxxxxxxxxxxxxxxxxxxxxxxxxxx y
bxxxxxxxxxxxx s
b10000000000000000000000000000100 "
b00000000000000000000000000000001 F
b00000000000000000000000000000000 G
b00000000000000000000000000000001 E
bxxxxxxxxxxxxxxxxxxxxxxxxxxxxxxxx H
b00000000000000000000001001011000 #
bxx g
bxx e
bxxxx w
bxxxxxxxxxxxx |
b00000000000000000000000000000000 /
bxxxxxxxxxxxxxxxxxxxxxxxxxxxxxxxx S
bxxxxxxxxxxxxxxxxxxxxxxxxxxxxxxxx T
bxxxxxxxxxxxxxxxxxxxxxxxxxxxxxxxx 6
b00000000000000000000000000000001 R
b00000000000000000000000000000001 1
bxxxxxxxxxxxx =
bxxxxxxxxxxxx p
bxxxxxxxxxxxxxxxxxxxxxxxxxxxxxxxx <
b00000000000000000000000000000000 >
bxxxx :
b00000000000011110100001001000000 L
bxxxxxxxxxxxxxxxxxxxxxxxxxxxxxxxx )
bxxxxxxxxxxxx u
bxxxxxxxx t
bxxxxxxxxxxxxxxxxxxxxxxxxxxxxxxxx r
0{
0~
0U
$end
#5000
18
1{
1~
1U
b00000000000011110100001000111111 L
1&
1W
b000000010000 '
b000000010000 X
1(
1Y
b00000000000000000000001001011000 )
b00000000000000000000001001011000 Z
b00000000000000000000001001011000 <
b00 d
0%
b0000 :
0$
b00 f
0.
0*
b000000000000 j
0k
0l
1m
b00000000000000000000000000000000 n
b00 h
05
07
0o
b00000000000000000000000000000000 q
b00000000000000000000000000000000 r
b00000000000000000000000000000000 A
b000000000100 s
b00000000 t
b000000000000 u
b0000 v
b0000 w
b0000000000000000000000000000000000000000000000000000000000000000 x
b000000000000000000000000000000000 y
b00000000000000000000000000000000 z
b00000000000000000000000000000000 c
b00000000000000000000000000000000 6
b01 e
b01 g
b00000000000000000000000000000100 ^
b00000000000000000000000000000100 /
b00 i
b0000 ?
b000000000000 B
#10000
08
0{
0~
0U
#15000
18
1{
1~
1U
19
1V
1@
1;
b00000000000011110100001000111110 L
bxxxxxxxxxxxxxxxxxxxxxxxxxxxxxxxx C
bxxxxxxxxxxxxxxxxxxxxxxxxxxxxxxxx >
b000000000000 "!
b01 d
1$
b01 f
1*
b10 e
#20000
08
0{
0~
0U
#25000
18
1{
1~
1U
b00000000000011110100001000111101 L
b10 d
1%
0$
b000000010000 j
bxxxxxxxxxxxxxxxxxxxxxxxxxxxxxxxxxxxxxxxxxxxxxxxxxxxxxxxxxxxxxxxx x
b00 e
b111111110000 p
b111111110000 =
b00000000000000000000000000000000 ^
b00000000000000000000000000000000 /
#30000
08
0{
0~
0U
#35000
18
1{
1~
1U
b00000000000000000000000000000000 H
b000000100000 M
b00000000000000000000000000000000 N
b00000000000011110100001000111100 L
0&
0W
0(
0Y
b111111110000 |
b00 d
0%
b00000000000000000000001001011000 n
b01 e
bxxxxxxxxxxxx p
bxxxxxxxxxxxx =
b00000000000000000000001001011000 ^
b00000000000000000000001001011000 /
#40000
08
0{
0~
0U
#45000
18
1{
1~
1U
b00000000000011110100001000111011 L
1&
1W
b000000100000 '
b000000100000 X
1(
1Y
b00000000000000000000000000000000 )
b00000000000000000000000000000000 Z
b00000000000000000000000000000000 <
bxxxxxxxxxxxx |
b01 d
1$
b10 e
#50000
08
0{
0~
0U
#55000
18
1{
1~
1U
b00000000000011110100001000111010 L
b10 d
1%
0$
b000000100000 j
b1111 :
b00 e
b000000000000 p
b000000000000 =
bxxxxxxxxxxxxxxxxxxxxxxxxxxxxxxxx ^
bxxxxxxxxxxxxxxxxxxxxxxxxxxxxxxxx /
#60000
08
0{
0~
0U
#65000
18
1{
1~
1U
b00000000000000000000000000000001 H
b000000100100 M
b11111111111111111111111111110110 N
b00000000000011110100001000111001 L
0&
0W
0(
0Y
b000000000000 |
b00 d
0%
b0000 :
b01 e
bxxxxxxxxxxxx p
bxxxxxxxxxxxx =
b00000000000000000000000000000000 >
b00000000000000000000000000000000 ^
b00000000000000000000000000000000 /
#70000
08
0{
0~
0U
#75000
18
1{
1~
1U
b00000000000011110100001000111000 L
1&
1W
b000000100100 '
b000000100100 X
1(
1Y
b11111111111111111111111111110110 )
b11111111111111111111111111110110 Z
b11111111111111111111111111110110 <
bxxxxxxxxxxxx |
b01 d
1$
b10 e
bxxxxxxxxxxxxxxxxxxxxxxxxxxxxxxxx >
bxxxxxxxxxxxxxxxxxxxxxxxxxxxxxxxx ^
bxxxxxxxxxxxxxxxxxxxxxxxxxxxxxxxx /
#80000
08
0{
0~
0U
#85000
18
1{
1~
1U
b00000000000011110100001000110111 L
b10 d
1%
b1111 :
0$
b000000100100 j
b00 e
b000000000100 p
b000000000100 =
#90000
08
0{
0~
0U
#95000
18
1{
1~
1U
b00000000000000000000000000000010 H
b000000101000 M
b11111111111111111111111111110111 N
b00000000000011110100001000110110 L
0&
0W
0(
0Y
b000000000100 |
b00 d
0%
b0000 :
b01 e
bxxxxxxxxxxxx p
bxxxxxxxxxxxx =
b11111111111111111111111111110110 >
b11111111111111111111111111110110 ^
b11111111111111111111111111110110 /
#100000
08
0{
0~
0U
#105000
18
1{
1~
1U
b00000000000011110100001000110101 L
1&
1W
b000000101000 '
b000000101000 X
1(
1Y
b11111111111111111111111111110111 )
b11111111111111111111111111110111 Z
b11111111111111111111111111110111 <
bxxxxxxxxxxxx |
b01 d
1$
b10 e
bxxxxxxxxxxxxxxxxxxxxxxxxxxxxxxxx >
bxxxxxxxxxxxxxxxxxxxxxxxxxxxxxxxx ^
bxxxxxxxxxxxxxxxxxxxxxxxxxxxxxxxx /
#110000
08
0{
0~
0U
#115000
18
1{
1~
1U
b00000000000011110100001000110100 L
b10 d
1%
b1111 :
0$
b000000101000 j
b00 e
b000000001000 p
b000000001000 =
#120000
08
0{
0~
0U
#125000
18
1{
1~
1U
b00000000000000000000000000000011 H
b000000101100 M
b00000000000000000000000000010111 N
b00000000000011110100001000110011 L
0&
0W
0(
0Y
b000000001000 |
b00 d
0%
b0000 :
b01 e
bxxxxxxxxxxxx p
bxxxxxxxxxxxx =
b11111111111111111111111111110111 >
b11111111111111111111111111110111 ^
b11111111111111111111111111110111 /
#130000
08
0{
0~
0U
#135000
18
1{
1~
1U
b00000000000011110100001000110010 L
1&
1W
b000000101100 '
b000000101100 X
1(
1Y
b00000000000000000000000000010111 )
b00000000000000000000000000010111 Z
b00000000000000000000000000010111 <
bxxxxxxxxxxxx |
b01 d
1$
b10 e
bxxxxxxxxxxxxxxxxxxxxxxxxxxxxxxxx >
bxxxxxxxxxxxxxxxxxxxxxxxxxxxxxxxx ^
bxxxxxxxxxxxxxxxxxxxxxxxxxxxxxxxx /
#140000
08
0{
0~
0U
#145000
18
1{
1~
1U
b00000000000011110100001000110001 L
b10 d
1%
b1111 :
0$
b000000101100 j
b00 e
b000000001100 p
b000000001100 =
#150000
08
0{
0~
0U
#155000
18
1{
1~
1U
b00000000000000000000000000000100 H
b000000110000 M
b00000000000000000000000000111000 N
b00000000000011110100001000110000 L
0&
0W
0(
0Y
b000000001100 |
b00 d
0%
b0000 :
b01 e
bxxxxxxxxxxxx p
bxxxxxxxxxxxx =
b00000000000000000000000000010111 >
b00000000000000000000000000010111 ^
b00000000000000000000000000010111 /
#160000
08
0{
0~
0U
#165000
18
1{
1~
1U
b00000000000011110100001000101111 L
1&
1W
b000000110000 '
b000000110000 X
1(
1Y
b00000000000000000000000000111000 )
b00000000000000000000000000111000 Z
b00000000000000000000000000111000 <
bxxxxxxxxxxxx |
b01 d
1$
b10 e
bxxxxxxxxxxxxxxxxxxxxxxxxxxxxxxxx >
bxxxxxxxxxxxxxxxxxxxxxxxxxxxxxxxx ^
bxxxxxxxxxxxxxxxxxxxxxxxxxxxxxxxx /
#170000
08
0{
0~
0U
#175000
18
1{
1~
1U
b00000000000011110100001000101110 L
b10 d
1%
b1111 :
0$
b000000110000 j
b00 e
b000000010000 p
b000000010000 =
#180000
08
0{
0~
0U
#185000
18
1{
1~
1U
b00000000000000000000000000000101 H
b000000110100 M
b00000000000000000000000000111111 N
b00000000000011110100001000101101 L
0&
0W
0(
0Y
b000000010000 |
b00 d
0%
b0000 :
b01 e
bxxxxxxxxxxxx p
bxxxxxxxxxxxx =
b00000000000000000000000000111000 >
b00000000000000000000000000111000 ^
b00000000000000000000000000111000 /
#190000
08
0{
0~
0U
#195000
18
1{
1~
1U
b00000000000011110100001000101100 L
1&
1W
b000000110100 '
b000000110100 X
1(
1Y
b00000000000000000000000000111111 )
b00000000000000000000000000111111 Z
b00000000000000000000000000111111 <
bxxxxxxxxxxxx |
b01 d
1$
b10 e
bxxxxxxxxxxxxxxxxxxxxxxxxxxxxxxxx >
bxxxxxxxxxxxxxxxxxxxxxxxxxxxxxxxx ^
bxxxxxxxxxxxxxxxxxxxxxxxxxxxxxxxx /
#200000
08
0{
0~
0U
#205000
18
1{
1~
1U
b00000000000011110100001000101011 L
b10 d
1%
b1111 :
0$
b000000110100 j
b00 e
b000000010100 p
b000000010100 =
#210000
08
0{
0~
0U
#215000
18
1{
1~
1U
b00000000000000000000000000000110 H
b000000111000 M
b00000000000000000000000000111000 N
b00000000000011110100001000101010 L
0&
0W
0(
0Y
b000000010100 |
b00 d
0%
b0000 :
b01 e
bxxxxxxxxxxxx p
bxxxxxxxxxxxx =
b00000000000000000000000000111111 >
b00000000000000000000000000111111 ^
b00000000000000000000000000111111 /
#220000
08
0{
0~
0U
#225000
18
1{
1~
1U
b00000000000011110100001000101001 L
1&
1W
b000000111000 '
b000000111000 X
1(
1Y
b00000000000000000000000000111000 )
b00000000000000000000000000111000 Z
b00000000000000000000000000111000 <
bxxxxxxxxxxxx |
b01 d
1$
b10 e
bxxxxxxxxxxxxxxxxxxxxxxxxxxxxxxxx >
bxxxxxxxxxxxxxxxxxxxxxxxxxxxxxxxx ^
bxxxxxxxxxxxxxxxxxxxxxxxxxxxxxxxx /
#230000
08
0{
0~
0U
#235000
18
1{
1~
1U
b00000000000011110100001000101000 L
b10 d
1%
b1111 :
0$
b000000111000 j
b00 e
b000000011000 p
b000000011000 =
#240000
08
0{
0~
0U
#245000
18
1{
1~
1U
b00000000000000000000000000000111 H
b000000111100 M
b00000000000000000000000000010111 N
b00000000000011110100001000100111 L
0&
0W
0(
0Y
b000000011000 |
b00 d
0%
b0000 :
b01 e
bxxxxxxxxxxxx p
bxxxxxxxxxxxx =
b00000000000000000000000000111000 >
b00000000000000000000000000111000 ^
b00000000000000000000000000111000 /
#250000
08
0{
0~
0U
#255000
18
1{
1~
1U
b00000000000011110100001000100110 L
1&
1W
b000000111100 '
b000000111100 X
1(
1Y
b00000000000000000000000000010111 )
b00000000000000000000000000010111 Z
b00000000000000000000000000010111 <
bxxxxxxxxxxxx |
b01 d
1$
b10 e
bxxxxxxxxxxxxxxxxxxxxxxxxxxxxxxxx >
bxxxxxxxxxxxxxxxxxxxxxxxxxxxxxxxx ^
bxxxxxxxxxxxxxxxxxxxxxxxxxxxxxxxx /
#260000
08
0{
0~
0U
#265000
18
1{
1~
1U
b00000000000011110100001000100101 L
b10 d
1%
b1111 :
0$
b000000111100 j
b00 e
b000000011100 p
b000000011100 =
#270000
08
0{
0~
0U
#275000
18
1{
1~
1U
b00000000000000000000000000001000 H
b000001000000 M
b11111111111111111111111111110111 N
b00000000000011110100001000100100 L
0&
0W
0(
0Y
b000000011100 |
b00 d
0%
b0000 :
b01 e
bxxxxxxxxxxxx p
bxxxxxxxxxxxx =
b00000000000000000000000000010111 >
b00000000000000000000000000010111 ^
b00000000000000000000000000010111 /
#280000
08
0{
0~
0U
#285000
18
1{
1~
1U
b00000000000011110100001000100011 L
1&
1W
b000001000000 '
b000001000000 X
1(
1Y
b11111111111111111111111111110111 )
b11111111111111111111111111110111 Z
b11111111111111111111111111110111 <
bxxxxxxxxxxxx |
b01 d
1$
b10 e
bxxxxxxxxxxxxxxxxxxxxxxxxxxxxxxxx >
bxxxxxxxxxxxxxxxxxxxxxxxxxxxxxxxx ^
bxxxxxxxxxxxxxxxxxxxxxxxxxxxxxxxx /
#290000
08
0{
0~
0U
#295000
18
1{
1~
1U
b00000000000011110100001000100010 L
b10 d
1%
b1111 :
0$
b000001000000 j
b00 e
b000000100000 p
b000000100000 =
#300000
08
0{
0~
0U
#305000
18
1{
1~
1U
b00000000000000000000000000001001 H
b000001000100 M
b11111111111111111111111111110110 N
b00000000000011110100001000100001 L
0&
0W
0(
0Y
b000000100000 |
b00 d
0%
b0000 :
b01 e
bxxxxxxxxxxxx p
bxxxxxxxxxxxx =
b11111111111111111111111111110111 >
b11111111111111111111111111110111 ^
b11111111111111111111111111110111 /
#310000
08
0{
0~
0U
#315000
18
1{
1~
1U
b00000000000011110100001000100000 L
1&
1W
b000001000100 '
b000001000100 X
1(
1Y
b11111111111111111111111111110110 )
b11111111111111111111111111110110 Z
b11111111111111111111111111110110 <
bxxxxxxxxxxxx |
b01 d
1$
b10 e
bxxxxxxxxxxxxxxxxxxxxxxxxxxxxxxxx >
bxxxxxxxxxxxxxxxxxxxxxxxxxxxxxxxx ^
bxxxxxxxxxxxxxxxxxxxxxxxxxxxxxxxx /
#320000
08
0{
0~
0U
#325000
18
1{
1~
1U
b00000000000011110100001000011111 L
b10 d
1%
b1111 :
0$
b000001000100 j
b00 e
b000000100100 p
b000000100100 =
#330000
08
0{
0~
0U
#335000
18
1{
1~
1U
b00000000000000000000000000001010 H
b000001001000 M
b00000000000000000000000000000000 N
b00000000000011110100001000011110 L
0&
0W
0(
0Y
b000000100100 |
b00 d
0%
b0000 :
b01 e
bxxxxxxxxxxxx p
bxxxxxxxxxxxx =
b11111111111111111111111111110110 >
b11111111111111111111111111110110 ^
b11111111111111111111111111110110 /
#340000
08
0{
0~
0U
#345000
18
1{
1~
1U
b00000000000011110100001000011101 L
1&
1W
b000001001000 '
b000001001000 X
1(
1Y
b00000000000000000000000000000000 )
b00000000000000000000000000000000 Z
b00000000000000000000000000000000 <
bxxxxxxxxxxxx |
b01 d
1$
b10 e
bxxxxxxxxxxxxxxxxxxxxxxxxxxxxxxxx >
bxxxxxxxxxxxxxxxxxxxxxxxxxxxxxxxx ^
bxxxxxxxxxxxxxxxxxxxxxxxxxxxxxxxx /
#350000
08
0{
0~
0U
#355000
18
1{
1~
1U
b00000000000011110100001000011100 L
b10 d
1%
b1111 :
0$
b000001001000 j
b00 e
b000000101000 p
b000000101000 =
#360000
08
0{
0~
0U
#365000
18
1{
1~
1U
b00000000000000000000000000001011 H
b00000000000000000000000000000000 H
b000000100000 O
b00000000000000000000000000000000 P
b11111111111111111111111111111111 Q
b00000000000011110100001000011011 L
0&
0W
0(
0Y
b000000101000 |
b00 d
0%
b0000 :
b01 e
bxxxxxxxxxxxx p
bxxxxxxxxxxxx =
b00000000000000000000000000000000 >
b00000000000000000000000000000000 ^
b00000000000000000000000000000000 /
#370000
08
0{
0~
0U
#375000
18
1{
1~
1U
b00000000000011110100001000011010 L
1,
1[
b000000100000 -
b000000100000 \
1+
1]
bxxxxxxxxxxxx |
b01 d
1$
b10 g
b000000000000 p
b000000000000 =
bxxxxxxxxxxxxxxxxxxxxxxxxxxxxxxxx >
bxxxxxxxxxxxxxxxxxxxxxxxxxxxxxxxx ^
bxxxxxxxxxxxxxxxxxxxxxxxxxxxxxxxx /
#380000
08
0{
0~
0U
#385000
18
1{
1~
1U
b00000000000011110100001000011001 L
b000000000000 |
b10 f
1.
0*
b000000100000 j
b00000000000000000000000000000000 >
b00 g
b00000000000000000000000000000000 ^
b00000000000000000000000000000000 /
#390000
08
0{
0~
0U
#395000
18
1{
1~
1U
b00000000000000000000000000000001 H
b000000100100 O
b11111111111111111111111111110110 P
b00000000000011110100001000011000 L
0,
0[
b00 f
0.
b01 g
#400000
08
0{
0~
0U
#405000
18
1{
1~
1U
b00000000000011110100001000010111 L
1,
1[
b000000100100 -
b000000100100 \
b01 f
1*
b10 g
b000000000100 p
b000000000100 =
#410000
08
0{
0~
0U
#415000
18
1{
1~
1U
b00000000000011110100001000010110 L
b000000000100 |
b10 f
1.
0*
b000000100100 j
b11111111111111111111111111110110 >
b00 g
b11111111111111111111111111110110 ^
b11111111111111111111111111110110 /
#420000
08
0{
0~
0U
#425000
18
1{
1~
1U
b00000000000000000000000000000010 H
b000000101000 O
b11111111111111111111111111110111 P
b00000000000011110100001000010101 L
0,
0[
b00 f
0.
b01 g
#430000
08
0{
0~
0U
#435000
18
1{
1~
1U
b00000000000011110100001000010100 L
1,
1[
b000000101000 -
b000000101000 \
b01 f
1*
b10 g
b000000001000 p
b000000001000 =
#440000
08
0{
0~
0U
#445000
18
1{
1~
1U
b00000000000011110100001000010011 L
b000000001000 |
b10 f
1.
0*
b000000101000 j
b11111111111111111111111111110111 >
b00 g
b11111111111111111111111111110111 ^
b11111111111111111111111111110111 /
#450000
08
0{
0~
0U
#455000
18
1{
1~
1U
b00000000000000000000000000000011 H
b000000101100 O
b00000000000000000000000000010111 P
b00000000000011110100001000010010 L
0,
0[
b00 f
0.
b01 g
#460000
08
0{
0~
0U
#465000
18
1{
1~
1U
b00000000000011110100001000010001 L
1,
1[
b000000101100 -
b000000101100 \
b01 f
1*
b10 g
b000000001100 p
b000000001100 =
#470000
08
0{
0~
0U
#475000
18
1{
1~
1U
b00000000000011110100001000010000 L
b000000001100 |
b10 f
1.
0*
b000000101100 j
b00000000000000000000000000010111 >
b00 g
b00000000000000000000000000010111 ^
b00000000000000000000000000010111 /
#480000
08
0{
0~
0U
#485000
18
1{
1~
1U
b00000000000000000000000000000100 H
b000000110000 O
b00000000000000000000000000111000 P
b00000000000011110100001000001111 L
0,
0[
b00 f
0.
b01 g
#490000
08
0{
0~
0U
#495000
18
1{
1~
1U
b00000000000011110100001000001110 L
1,
1[
b000000110000 -
b000000110000 \
b01 f
1*
b10 g
b000000010000 p
b000000010000 =
#500000
08
0{
0~
0U
#505000
18
1{
1~
1U
b00000000000011110100001000001101 L
b000000010000 |
b10 f
1.
0*
b000000110000 j
b00000000000000000000000000111000 >
b00 g
b00000000000000000000000000111000 ^
b00000000000000000000000000111000 /
#510000
08
0{
0~
0U
#515000
18
1{
1~
1U
b00000000000000000000000000000101 H
b000000110100 O
b00000000000000000000000000111111 P
b00000000000011110100001000001100 L
0,
0[
b00 f
0.
b01 g
#520000
08
0{
0~
0U
#525000
18
1{
1~
1U
b00000000000011110100001000001011 L
1,
1[
b000000110100 -
b000000110100 \
b01 f
1*
b10 g
b000000010100 p
b000000010100 =
#530000
08
0{
0~
0U
#535000
18
1{
1~
1U
b00000000000011110100001000001010 L
b000000010100 |
b10 f
1.
0*
b000000110100 j
b00000000000000000000000000111111 >
b00 g
b00000000000000000000000000111111 ^
b00000000000000000000000000111111 /
#540000
08
0{
0~
0U
#545000
18
1{
1~
1U
b00000000000000000000000000000110 H
b000000111000 O
b00000000000000000000000000111000 P
b00000000000011110100001000001001 L
0,
0[
b00 f
0.
b01 g
#550000
08
0{
0~
0U
#555000
18
1{
1~
1U
b00000000000011110100001000001000 L
1,
1[
b000000111000 -
b000000111000 \
b01 f
1*
b10 g
b000000011000 p
b000000011000 =
#560000
08
0{
0~
0U
#565000
18
1{
1~
1U
b00000000000011110100001000000111 L
b000000011000 |
b10 f
1.
0*
b000000111000 j
b00000000000000000000000000111000 >
b00 g
b00000000000000000000000000111000 ^
b00000000000000000000000000111000 /
#570000
08
0{
0~
0U
#575000
18
1{
1~
1U
b00000000000000000000000000000111 H
b000000111100 O
b00000000000000000000000000010111 P
b00000000000011110100001000000110 L
0,
0[
b00 f
0.
b01 g
#580000
08
0{
0~
0U
#585000
18
1{
1~
1U
b00000000000011110100001000000101 L
1,
1[
b000000111100 -
b000000111100 \
b01 f
1*
b10 g
b000000011100 p
b000000011100 =
#590000
08
0{
0~
0U
#595000
18
1{
1~
1U
b00000000000011110100001000000100 L
b000000011100 |
b10 f
1.
0*
b000000111100 j
b00000000000000000000000000010111 >
b00 g
b00000000000000000000000000010111 ^
b00000000000000000000000000010111 /
#600000
08
0{
0~
0U
#605000
18
1{
1~
1U
b00000000000000000000000000001000 H
b000001000000 O
b11111111111111111111111111110111 P
b00000000000011110100001000000011 L
0,
0[
b00 f
0.
b01 g
#610000
08
0{
0~
0U
#615000
18
1{
1~
1U
b00000000000011110100001000000010 L
1,
1[
b000001000000 -
b000001000000 \
b01 f
1*
b10 g
b000000100000 p
b000000100000 =
#620000
08
0{
0~
0U
#625000
18
1{
1~
1U
b00000000000011110100001000000001 L
b000000100000 |
b10 f
1.
0*
b000001000000 j
b11111111111111111111111111110111 >
b00 g
b11111111111111111111111111110111 ^
b11111111111111111111111111110111 /
#630000
08
0{
0~
0U
#635000
18
1{
1~
1U
b00000000000000000000000000001001 H
b000001000100 O
b11111111111111111111111111110110 P
b00000000000011110100001000000000 L
0,
0[
b00 f
0.
b01 g
#640000
08
0{
0~
0U
#645000
18
1{
1~
1U
b00000000000011110100000111111111 L
1,
1[
b000001000100 -
b000001000100 \
b01 f
1*
b10 g
b000000100100 p
b000000100100 =
#650000
08
0{
0~
0U
#655000
18
1{
1~
1U
b00000000000011110100000111111110 L
b000000100100 |
b10 f
1.
0*
b000001000100 j
b11111111111111111111111111110110 >
b00 g
b11111111111111111111111111110110 ^
b11111111111111111111111111110110 /
#660000
08
0{
0~
0U
#665000
18
1{
1~
1U
b00000000000000000000000000001010 H
b000001001000 O
b00000000000000000000000000000000 P
b00000000000011110100000111111101 L
0,
0[
b00 f
0.
b01 g
#670000
08
0{
0~
0U
#675000
18
1{
1~
1U
b00000000000011110100000111111100 L
1,
1[
b000001001000 -
b000001001000 \
b01 f
1*
b10 g
b000000101000 p
b000000101000 =
#680000
08
0{
0~
0U
#685000
18
1{
1~
1U
b00000000000011110100000111111011 L
b000000101000 |
b10 f
1.
0*
b000001001000 j
b00000000000000000000000000000000 >
b00 g
b00000000000000000000000000000000 ^
b00000000000000000000000000000000 /
#690000
08
0{
0~
0U
#695000
18
1{
1~
1U
b00000000000000000000000000001011 H
b00000000000011110100000111111010 L
0,
0[
b00 f
0.
b01 g
#700000
08
0{
0~
0U
#705000
18
1{
1~
1U
b00000000000011110100000111111001 L
b000000000000 M
b00000000000000000000000000000001 N
0+
0]
b01 f
1*
#710000
08
0{
0~
0U
#715000
18
1{
1~
1U
b00000000000011110100000111111000 L
1&
1W
b000000000000 '
b000000000000 X
1(
1Y
b00000000000000000000000000000001 )
b00000000000000000000000000000001 Z
b00000000000000000000000000000001 <
b10 e
#720000
08
0{
0~
0U
#725000
18
1{
1~
1U
b00000000000011110100000111110111 L
b10 d
1%
b1111 :
0$
b000000000000 j
b0000 :
b00 e
b111111100000 p
b111111100000 =
b00000000000000000000000000000100 ^
b00000000000000000000000000000100 /
#730000
08
0{
0~
0U
#735000
18
1{
1~
1U
b00000000000011110100000111110110 L
0&
0W
0(
0Y
b111111100000 |
b00 d
0%
1k
b01 e
bxxxxxxxxxxxxxxxxxxxxxxxxxxxxxxxx >
b000000101000 p
b000000101000 =
b00000000000000000000000000000101 ^
b00000000000000000000000000000101 /
b01 i
#740000
08
0{
0~
0U
#745000
18
1{
1~
1U
b00000000000011110100000111110101 L
b000000101000 |
b01 d
1$
0k
0m
b01 h
13
b00000000000000000000000000000000 >
b00000000000000000000000000000000 ^
b00000000000000000000000000000000 /
b10 i
b000000000100 p
b000000000100 =
